(module BT2_keybroad (layer F.Cu) (tedit 5A5FF354)
  (fp_text reference B45 (at 0.635 -0.897) (layer F.SilkS)
    (effects (font (size 1 1) (thickness 0.15)))
  )
  (fp_text value bt (at 0.635 -1.897) (layer F.Fab)
    (effects (font (size 1 1) (thickness 0.15)))
  )
  (pad 3 thru_hole circle (at -9.9695 -0.508) (size 1.8 1.8) (drill 1.6) (layers *.Cu *.Mask))
  (pad 2 thru_hole circle (at -8.8265 -3.1115) (size 2.3 2.3) (drill 1.6) (layers *.Cu *.Mask))
  (pad 1 thru_hole circle (at -2.667 -6.096) (size 2.3 2.3) (drill 1.6) (layers *.Cu *.Mask))
  (pad 5 thru_hole circle (at 0.1905 -1.27) (size 1.7 1.7) (drill 1.5) (layers *.Cu *.Mask))
  (pad 4 thru_hole circle (at -4.826 -0.8255) (size 4 4) (drill 3.8) (layers *.Cu *.Mask))
)
