(module BT_keybroad (layer F.Cu) (tedit 5A5FF518)
  (fp_text reference B1 (at 0 0.5) (layer F.SilkS)
    (effects (font (size 1 1) (thickness 0.15)))
  )
  (fp_text value BT (at 0 -0.5) (layer F.Fab)
    (effects (font (size 1 1) (thickness 0.15)))
  )
  (pad "" thru_hole circle (at -9.8552 -1.3208) (size 1.8 1.8) (drill 1.6) (layers *.Cu *.Mask))
  (pad 2 thru_hole circle (at -8.382 -3.7084) (size 2.3 2.3) (drill 1.6) (layers *.Cu *.Mask))
  (pad 1 thru_hole circle (at -1.8288 -5.6388) (size 2.3 2.3) (drill 1.6) (layers *.Cu *.Mask))
  (pad "" thru_hole circle (at 0.2032 -0.3556) (size 1.8 1.8) (drill 1.6) (layers *.Cu *.Mask))
  (pad "" thru_hole circle (at -4.826 -0.8255) (size 4 4) (drill 3.8) (layers *.Cu *.Mask))
)
