(module C_10uF_6.3V (layer F.Cu) (tedit 5A73CC07)
  (fp_text reference REF** (at -3.3528 -3.0226) (layer F.SilkS)
    (effects (font (size 1 1) (thickness 0.15)))
  )
  (fp_text value C_10uF_6.3V (at -2.0574 1.016) (layer F.Fab)
    (effects (font (size 1 1) (thickness 0.15)))
  )
  (fp_line (start -4.445 -1.7018) (end -1.0414 -1.7018) (layer F.SilkS) (width 0.05))
  (fp_line (start -1.0414 -1.7018) (end -1.0414 0.1016) (layer F.SilkS) (width 0.05))
  (fp_line (start -1.0414 0.1016) (end -4.4704 0.1016) (layer F.SilkS) (width 0.05))
  (fp_line (start -4.4704 0.1016) (end -4.4704 -1.7018) (layer F.SilkS) (width 0.05))
  (pad 1 smd rect (at -1.5494 -0.8128) (size 1.3 1.6) (layers F.Cu F.Paste F.Mask))
  (pad 2 smd rect (at -3.9878 -0.8128) (size 1.3 1.6) (layers F.Cu F.Paste F.Mask))
)
