(module LED_APA104 (layer F.Cu) (tedit 5A40B96B)
  (fp_text reference REF** (at -1.9304 0.9652) (layer F.SilkS)
    (effects (font (size 1 1) (thickness 0.15)))
  )
  (fp_text value LED_APA104 (at -2.1844 -2.6416) (layer F.Fab)
    (effects (font (size 1 1) (thickness 0.15)))
  )
  (fp_line (start -3.556 -1.9304) (end 1.524 -1.9304) (layer B.CrtYd) (width 0.05))
  (fp_line (start 1.524 -1.9304) (end 1.524 3.1496) (layer B.CrtYd) (width 0.05))
  (fp_line (start 1.524 3.1496) (end -3.556 3.1496) (layer B.CrtYd) (width 0.05))
  (fp_line (start -3.556 3.1496) (end -3.556 -1.9304) (layer B.CrtYd) (width 0.05))
  (fp_line (start -3.556 -1.9304) (end -1.524 -1.9304) (layer F.Fab) (width 0.05))
  (fp_line (start -3.556 0.1016) (end -3.556 -1.9304) (layer F.Fab) (width 0.05))
  (pad 1 smd rect (at -3.1496 -1.524) (size 1 0.8) (layers F.Cu F.Paste F.Mask))
  (pad 2 smd rect (at -3.1496 0.635) (size 1 0.8) (layers F.Cu F.Paste F.Mask))
  (pad 3 smd rect (at -3.1496 2.7432) (size 1 0.8) (layers F.Cu F.Paste F.Mask))
  (pad 4 smd rect (at 1.1176 2.7432) (size 1 0.8) (layers F.Cu F.Paste F.Mask))
  (pad 5 smd rect (at 1.1176 0.635) (size 1 0.8) (layers F.Cu F.Paste F.Mask))
  (pad 6 smd rect (at 1.1176 -1.524) (size 1 0.8) (layers F.Cu F.Paste F.Mask))
)
