(module SSM3K333R (layer F.Cu) (tedit 5A322C04)
  (descr "SC-59, https://lib.chipdip.ru/images/import_diod/original/SOT-23_SC-59.jpg")
  (tags SC-59)
  (attr smd)
  (fp_text reference REF** (at 0 -2.5) (layer F.SilkS)
    (effects (font (size 1 1) (thickness 0.15)))
  )
  (fp_text value SC-59 (at 0 2.5) (layer F.Fab)
    (effects (font (size 1 1) (thickness 0.15)))
  )
  (fp_line (start 0.8509 0.9271) (end 0.8509 0.4572) (layer F.Fab) (width 0.03))
  (fp_line (start -1.0033 -1.143) (end -1.0033 1.5875) (layer F.Fab) (width 0.03))
  (fp_line (start -0.7239 -1.4224) (end 0.8509 -1.4224) (layer F.Fab) (width 0.03))
  (fp_line (start -1.0033 -1.143) (end -0.7239 -1.4224) (layer F.Fab) (width 0.03))
  (fp_line (start 0.8509 -1.4224) (end 0.8509 1.5875) (layer F.Fab) (width 0.03))
  (fp_line (start -1.0033 1.5875) (end 0.8509 1.5875) (layer F.Fab) (width 0.03))
  (fp_text user %R (at 0 0 90) (layer F.Fab)
    (effects (font (size 0.5 0.5) (thickness 0.075)))
  )
  (fp_line (start -1.45 -1.65) (end 0.95 -1.65) (layer F.SilkS) (width 0.12))
  (fp_line (start 0.95 -1.65) (end 0.95 -0.6) (layer F.SilkS) (width 0.12))
  (fp_line (start 0.95 1.65) (end 0.95 0.6) (layer F.SilkS) (width 0.12))
  (fp_line (start -1.9 -1.8) (end 1.9 -1.8) (layer F.CrtYd) (width 0.05))
  (fp_line (start -1.9 -1.8) (end -1.9 1.8) (layer F.CrtYd) (width 0.05))
  (fp_line (start 1.9 1.8) (end 1.9 -1.8) (layer F.CrtYd) (width 0.05))
  (fp_line (start 1.9 1.8) (end -1.9 1.8) (layer F.CrtYd) (width 0.05))
  (pad 1 smd rect (at -1.3081 -0.9398) (size 0.58 0.4) (layers F.Cu F.Paste F.Mask))
  (pad 2 smd rect (at -1.3081 1.1049) (size 0.58 0.4) (layers F.Cu F.Paste F.Mask))
  (pad 3 smd rect (at 1.1557 0.0762) (size 0.58 0.4) (layers F.Cu F.Paste F.Mask))
  (model ${KISYS3DMOD}/TO_SOT_Packages_SMD.3dshapes/SC-59.wrl
    (at (xyz 0 0 0))
    (scale (xyz 1 1 1))
    (rotate (xyz 0 0 0))
  )
)
